{
  "development": {
    "username": "postgres",
    "password": "134206ok",
    "database": "secondhand_project",
    "host": "127.0.0.1",
    "dialect": "postgres",
    "timezone": "Asia/Jakarta"
  },
  "staging": {
    "username": "plriswutfodefa",
    "password": "248fde0d40042ec432fa3e976b780ca50f69756fb838212a63bb389de03f6b1e",
    "database": "dai42gc60aoii0",
    "host": "ec2-18-204-142-254.compute-1.amazonaws.com",
    "dialect": "postgres",
    "dialectOptions": {
      "ssl": {
        "require": true,
        "rejectUnauthorized": false
      }
    },
    "timezone": "Asia/Jakarta"
  },
  "test": {
    "username": "root",
    "password": null,
    "database": "secondhand_test",
    "host": "127.0.0.1",
    "dialect": "mysql"
  },
  "production": {
    "username": "dcesyykegymeif",
    "password": "8d42094a6fdaf68181e173d46eb9e347e05ceda836e9b0ddd45ea2387978cfc7",
    "database": "d4h866i1dnbc4d",
    "host": "ec2-52-22-136-117.compute-1.amazonaws.com",
    "dialect": "postgres",
    "dialectOptions": {
      "ssl": {
        "require": true,
        "rejectUnauthorized": false
      }
    },
    "timezone": "Asia/Jakarta"
  }
}
