[
  {
    "id": 1,
    "name": "Bruno",
    "user_id": 1
  },
  {
    "id": 2,
    "name": "Kodir",
    "user_id": 2
  },
  {
    "id": 3,
    "name": "Joni",
    "user_id": 3
  },
  {
    "id": 4,
    "name": "Bambang",
    "user_id": 4
  }
]
